{
  "builders": [
    {
      "availability_zone": "NCI",
      "flavor": "639b8b2a-a5a6-4aa2-8592-ca765ee7af63",
      "image_name": "TPAC matlab.005 Ubuntu 16.04 LTS (Xenial) amd64 {{timestamp}}",
      "security_groups": "d971d503-00b2-4cc4-ae4a-eab91154a7d0",
      "source_image": "fc0f3a36-5354-411c-8819-03e2af33cd5e",
      "ssh_username": "ubuntu",
      "type": "openstack"
    }
  ],
  "post-processors": null,
  "provisioners": [
    {
      "execute_command": "echo 'changing to root' | {{.Vars}} sudo -S -E bash '{{.Path}}'",
      "script": "./scripts/install.ansible.sh",
      "type": "shell"
    },
    {
      "playbook_dir": "./ansible/",
      "playbook_file": "./toolchains/matlab.005/ansible.matlab.005.yml",
      "playbook_paths": "./ansible/tasks/",
      "type": "ansible-local"
    }
  ]
}
